{ "height":9,
 "layers":[
        {
         "data":[34, 34, 26, 14, 24, 14, 26, 34, 34, 14, 24, 26, 24, 14, 24, 26, 24, 14, 24, 14, 26, 14, 24, 14, 26, 14, 24, 14, 24, 26, 24, 14, 24, 26, 24, 14, 24, 14, 26, 14, 24, 14, 26, 14, 24, 14, 24, 26, 24, 14, 24, 26, 24, 14, 34, 34, 26, 14, 24, 14, 26, 34, 34, 14, 24, 14, 24, 14, 24, 14, 24, 14, 24, 14, 24, 14, 24, 14, 24, 14, 24],
         "height":9,
         "name":"tile_layer",
         "opacity":1,
         "type":"tilelayer",
         "visible":true,
         "width":9,
         "x":0,
         "y":0
        }, 
        {
         "data":[0, 0, 0, 0, 0, 0, 0, 0, 0, 58, 58, 0, 0, 0, 0, 0, 58, 58, 59, 59, 0, 0, 0, 0, 0, 59, 59, 59, 59, 0, 0, 0, 0, 0, 59, 59, 59, 59, 0, 0, 0, 0, 0, 59, 59, 58, 58, 0, 0, 0, 0, 0, 58, 58, 0, 0, 0, 0, 0, 0, 0, 0, 0, 0, 0, 0, 0, 0, 0, 0, 0, 0, 0, 0, 0, 0, 0, 0, 0, 0, 0],
         "height":9,
         "name":"waffle_layer",
         "opacity":1,
         "type":"tilelayer",
         "visible":true,
         "width":9,
         "x":0,
         "y":0
        }, 
        {
         "data":[0, 0, 0, 43, 43, 43, 0, 0, 0, 43, 43, 0, 43, 43, 43, 0, 43, 43, 43, 43, 0, 43, 43, 43, 0, 43, 43, 43, 43, 0, 43, 43, 43, 0, 43, 43, 43, 43, 0, 43, 43, 43, 0, 43, 43, 43, 43, 0, 43, 43, 43, 0, 43, 43, 0, 0, 0, 43, 43, 43, 0, 0, 0, 43, 43, 43, 43, 43, 43, 43, 43, 43, 43, 43, 43, 43, 43, 43, 43, 43, 43],
         "height":9,
         "name":"item_layer",
         "opacity":1,
         "type":"tilelayer",
         "visible":true,
         "width":9,
         "x":0,
         "y":0
        }, 
        {
         "data":[0, 0, 0, 0, 0, 0, 0, 0, 0, 0, 0, 0, 0, 0, 0, 0, 0, 0, 0, 0, 0, 0, 0, 0, 0, 0, 0, 0, 0, 0, 0, 0, 0, 0, 0, 0, 0, 0, 0, 0, 0, 0, 0, 0, 0, 0, 0, 0, 0, 0, 0, 0, 0, 0, 0, 0, 0, 0, 0, 0, 0, 0, 0, 0, 0, 0, 0, 0, 0, 0, 0, 0, 0, 0, 0, 0, 0, 0, 0, 0, 0],
         "height":9,
         "name":"cage_layer",
         "opacity":1,
         "type":"tilelayer",
         "visible":false,
         "width":9,
         "x":0,
         "y":0
        }],
 "nextobjectid":1,
 "orientation":"orthogonal",
 "properties":
    {
     "cake":"5",
     "cookies":"1,1,1,0,1,1",
     "cookies_weight":"15,5,5,10,15,15",
     "moves":"35",
     "score_1_star":"1000",
     "score_2_star":"2000",
     "score_3_star":"3000",
     "target_1":"4,32,0",
     "target_2":"",
     "target_3":"",
     "target_4":"",
     "target_text":"Break waffle cones"
    },
 "renderorder":"right-down",
 "tileheight":125,
 "tilesets":[
        {
         "firstgid":1,
         "margin":0,
         "name":"map_maker",
         "properties":
            {

            },
         "spacing":0,
         "tilecount":81,
         "tileheight":125,
         "tiles":
            {
             "0":
                {
                 "image":"..\/blue.png"
                },
             "1":
                {
                 "image":"..\/blue_bomb_breaker.png"
                },
             "10":
                {
                 "image":"..\/chocolate_4.png"
                },
             "11":
                {
                 "image":"..\/chocolate_5.png"
                },
             "12":
                {
                 "image":"..\/chocolate_6.png"
                },
             "13":
                {
                 "image":"..\/dark_tile.png"
                },
             "14":
                {
                 "image":"..\/generic_gingerbread.png"
                },
             "15":
                {
                 "image":"..\/generic_rock_candy.png"
                },
             "16":
                {
                 "image":"..\/green.png"
                },
             "17":
                {
                 "image":"..\/green_bomb_breaker.png"
                },
             "18":
                {
                 "image":"..\/green_column_breaker.png"
                },
             "19":
                {
                 "image":"..\/green_gingerbread.png"
                },
             "2":
                {
                 "image":"..\/blue_column_breaker.png"
                },
             "20":
                {
                 "image":"..\/green_rock_candy.png"
                },
             "21":
                {
                 "image":"..\/green_row_breaker.png"
                },
             "22":
                {
                 "image":"..\/green_x_breaker.png"
                },
             "23":
                {
                 "image":"..\/light_tile.png"
                },
             "24":
                {
                 "image":"..\/marshmallow.png"
                },
             "25":
                {
                 "image":"..\/none_tile.png"
                },
             "26":
                {
                 "image":"..\/orange.png"
                },
             "27":
                {
                 "image":"..\/orange_bomb_breaker.png"
                },
             "28":
                {
                 "image":"..\/orange_column_breaker.png"
                },
             "29":
                {
                 "image":"..\/orange_gingerbread.png"
                },
             "3":
                {
                 "image":"..\/blue_gingerbread.png"
                },
             "30":
                {
                 "image":"..\/orange_rock_candy.png"
                },
             "31":
                {
                 "image":"..\/orange_row_breaker.png"
                },
             "32":
                {
                 "image":"..\/orange_x_breaker.png"
                },
             "33":
                {
                 "image":"..\/pass_through_tile.png"
                },
             "34":
                {
                 "image":"..\/purple.png"
                },
             "35":
                {
                 "image":"..\/purple_bomb_breaker.png"
                },
             "36":
                {
                 "image":"..\/purple_column_breaker.png"
                },
             "37":
                {
                 "image":"..\/purple_gingerbread.png"
                },
             "38":
                {
                 "image":"..\/purple_rock_candy.png"
                },
             "39":
                {
                 "image":"..\/purple_row_breaker.png"
                },
             "4":
                {
                 "image":"..\/blue_rock_candy.png"
                },
             "40":
                {
                 "image":"..\/purple_x_breaker.png"
                },
             "41":
                {
                 "image":"..\/rainbow.png"
                },
             "42":
                {
                 "image":"..\/random_item.png"
                },
             "43":
                {
                 "image":"..\/red.png"
                },
             "44":
                {
                 "image":"..\/red_bomb_breaker.png"
                },
             "45":
                {
                 "image":"..\/red_column_breaker.png"
                },
             "46":
                {
                 "image":"..\/red_gingerbread.png"
                },
             "47":
                {
                 "image":"..\/red_rock_candy.png"
                },
             "48":
                {
                 "image":"..\/red_row_breaker.png"
                },
             "49":
                {
                 "image":"..\/red_x_breaker.png"
                },
             "5":
                {
                 "image":"..\/blue_row_breaker.png"
                },
             "50":
                {
                 "image":"..\/yellow.png"
                },
             "51":
                {
                 "image":"..\/yellow_bomb_breaker.png"
                },
             "52":
                {
                 "image":"..\/yellow_column_breaker.png"
                },
             "53":
                {
                 "image":"..\/yellow_gingerbread.png"
                },
             "54":
                {
                 "image":"..\/yellow_rock_candy.png"
                },
             "55":
                {
                 "image":"..\/yellow_row_breaker.png"
                },
             "56":
                {
                 "image":"..\/yellow_x_breaker.png"
                },
             "57":
                {
                 "image":"..\/waffle_1.png"
                },
             "58":
                {
                 "image":"..\/waffle_2.png"
                },
             "59":
                {
                 "image":"..\/waffle_3.png"
                },
             "6":
                {
                 "image":"..\/blue_x_breaker.png"
                },
             "60":
                {
                 "image":"..\/cage_1.png"
                },
             "61":
                {
                 "image":"..\/collectible_1.png"
                },
             "62":
                {
                 "image":"..\/collectible_2.png"
                },
             "63":
                {
                 "image":"..\/collectible_3.png"
                },
             "64":
                {
                 "image":"..\/collectible_4.png"
                },
             "65":
                {
                 "image":"..\/collectible_5.png"
                },
             "66":
                {
                 "image":"..\/collectible_6.png"
                },
             "67":
                {
                 "image":"..\/collectible_7.png"
                },
             "68":
                {
                 "image":"..\/collectible_8.png"
                },
             "69":
                {
                 "image":"..\/collectible_9.png"
                },
             "7":
                {
                 "image":"..\/chocolate_1.png"
                },
             "70":
                {
                 "image":"..\/collectible_10.png"
                },
             "71":
                {
                 "image":"..\/collectible_11.png"
                },
             "72":
                {
                 "image":"..\/collectible_12.png"
                },
             "73":
                {
                 "image":"..\/collectible_13.png"
                },
             "74":
                {
                 "image":"..\/collectible_14.png"
                },
             "75":
                {
                 "image":"..\/collectible_15.png"
                },
             "76":
                {
                 "image":"..\/collectible_16.png"
                },
             "77":
                {
                 "image":"..\/collectible_17.png"
                },
             "78":
                {
                 "image":"..\/collectible_18.png"
                },
             "79":
                {
                 "image":"..\/collectible_19.png"
                },
             "8":
                {
                 "image":"..\/chocolate_2.png"
                },
             "80":
                {
                 "image":"..\/collectible_20.png"
                },
             "9":
                {
                 "image":"..\/chocolate_3.png"
                }
            },
         "tilewidth":125
        }, 
        {
         "firstgid":82,
         "margin":0,
         "name":"cakes",
         "properties":
            {

            },
         "spacing":0,
         "tilecount":20,
         "tileheight":277,
         "tiles":
            {
             "0":
                {
                 "image":"..\/cakes\/cake_1_4.png"
                },
             "1":
                {
                 "image":"..\/cakes\/cake_2_4.png"
                },
             "10":
                {
                 "image":"..\/cakes\/cake_11_4.png"
                },
             "11":
                {
                 "image":"..\/cakes\/cake_12_4.png"
                },
             "12":
                {
                 "image":"..\/cakes\/cake_13_4.png"
                },
             "13":
                {
                 "image":"..\/cakes\/cake_14_4.png"
                },
             "14":
                {
                 "image":"..\/cakes\/cake_15_4.png"
                },
             "15":
                {
                 "image":"..\/cakes\/cake_16_4.png"
                },
             "16":
                {
                 "image":"..\/cakes\/cake_17_4.png"
                },
             "17":
                {
                 "image":"..\/cakes\/cake_18_4.png"
                },
             "18":
                {
                 "image":"..\/cakes\/cake_19_4.png"
                },
             "19":
                {
                 "image":"..\/cakes\/cake_20_4.png"
                },
             "2":
                {
                 "image":"..\/cakes\/cake_3_4.png"
                },
             "3":
                {
                 "image":"..\/cakes\/cake_4_4.png"
                },
             "4":
                {
                 "image":"..\/cakes\/cake_5_4.png"
                },
             "5":
                {
                 "image":"..\/cakes\/cake_6_4.png"
                },
             "6":
                {
                 "image":"..\/cakes\/cake_7_4.png"
                },
             "7":
                {
                 "image":"..\/cakes\/cake_8_4.png"
                },
             "8":
                {
                 "image":"..\/cakes\/cake_9_4.png"
                },
             "9":
                {
                 "image":"..\/cakes\/cake_10_4.png"
                }
            },
         "tilewidth":278
        }],
 "tilewidth":125,
 "version":1,
 "width":9
}